# vtk DataFile Version 3.0
This file was written using writevtk_unstr.m
ASCII
DATASET UNSTRUCTURED_GRID
POINTS 5 double
0 0 0
1 1 0
1 -1 0
-1 1 0
-1 -1 0

CELLS 4 12
2 1 0
2 0 4
2 3 0
2 0 2

CELL_TYPES 4
3
3
3
3